[gd_scene load_steps=5 format=2]

[ext_resource path="res://Scenes/Downscape/UI/DownscapeUI.gd" type="Script" id=1]
[ext_resource path="res://Scenes/Downscape/UI/EnergyBar.tscn" type="PackedScene" id=2]
[ext_resource path="res://Scenes/Downscape/UI/Transmission.tscn" type="PackedScene" id=3]
[ext_resource path="res://Scenes/Downscape/UI/DepthMeter.tscn" type="PackedScene" id=4]

[node name="DownscapeUI" type="Control"]
anchor_right = 1.0
anchor_bottom = 1.0
script = ExtResource( 1 )
__meta__ = {
"_edit_use_anchors_": false
}

[node name="Transmission" parent="." instance=ExtResource( 3 )]
visible = false
anchor_right = 0.0
anchor_bottom = 0.0
margin_left = 312.0
margin_top = 8.0
margin_right = 632.0
margin_bottom = 84.0

[node name="EnergyBar" parent="." instance=ExtResource( 2 )]
anchor_right = 0.0
anchor_bottom = 0.0
margin_left = 8.0
margin_top = 8.0
margin_right = 24.0
margin_bottom = 208.0

[node name="DepthMeter" parent="." instance=ExtResource( 4 )]
margin_left = 64.0
margin_top = 8.0
margin_right = -480.0
margin_bottom = -320.0

[node name="DepthUpdateTimer" type="Timer" parent="."]
wait_time = 0.5
autostart = true

[connection signal="timeout" from="DepthUpdateTimer" to="." method="_on_DepthUpdateTimer_timeout"]
