[gd_scene load_steps=5 format=2]

[ext_resource path="res://Scenes/Downscape/NPC/Dartfish/Dartfish.tscn" type="PackedScene" id=1]
[ext_resource path="res://Sprites/demonfish.png" type="Texture" id=2]

[sub_resource type="CircleShape2D" id=1]
radius = 7.0

[sub_resource type="CircleShape2D" id=2]
radius = 120.0

[node name="Demonfish" instance=ExtResource( 1 )]
npc_name = "Demonfish"
hostile = true
scan_text = "Perplexingly hostile, but very sensitive to light."
swim_impulse = 15.0

[node name="CollisionShape2D" parent="DamageArea" index="0"]
shape = SubResource( 1 )

[node name="Sprite" parent="." index="7"]
texture = ExtResource( 2 )

[node name="CollisionShape2D" parent="TargetArea" index="0"]
shape = SubResource( 2 )
